Categories:Multimedia
License:GPL-3.0-only
Author Name:Ivan D'Ortenzio
Web Site:
Source Code:https://github.com/enricocid/Music-Player-GO
Issue Tracker:https://github.com/enricocid/Music-Player-GO/issues
Changelog:https://github.com/enricocid/Music-Player-GO/releases
Donate:https://paypal.me/enricocid

Auto Name:Music Player GO
Summary:Very slim music player
Description:
''Music Player GO'' is a very slim music player (small app size). It offers a
colorful and simple "Unified UI" (no need to navigate between activities). The
app also features an Equalizer, Themes (Light, dark, night) andmore. It even
deals with Pause/resume when the headsets are (dis)connected.
.

Repo Type:git
Repo:https://github.com/enricocid/Music-Player-GO.git

Build:2.3.3.3,49
    commit=v2.3.3.3
    subdir=project/app
    gradle=yes

Build:2.4.1.5,56
    commit=v2.4.1.5
    subdir=project/app
    gradle=yes

Build:2.4.1.8,59
    commit=v2.4.1.8
    subdir=project/app
    gradle=yes

Build:2.4.2.2,62
    commit=v2.4.2.2
    subdir=project/app
    gradle=yes

Build:2.5,63
    commit=v2.5
    subdir=project/app
    gradle=yes

Build:2.5.1.3,67
    commit=v2.5.1.3
    subdir=project/app
    gradle=yes

Build:2.5.1.4,68
    commit=v2.5.1.4
    subdir=project/app
    gradle=yes

Build:2.5.1.5,69
    commit=v2.5.1.5
    subdir=project/app
    gradle=yes

Build:2.5.2,70
    commit=v2.5.2
    subdir=project/app
    gradle=yes

Build:2.5.3.1,72
    commit=v2.5.3.1
    subdir=project/app
    gradle=yes

Build:2.5.3.2,73
    commit=ae6e2ff6f20cd70e905a06c638e2d1a3a4382d1b
    subdir=project/app
    gradle=yes

Build:3.0.4.1,81
    commit=v.3.0.4.1
    subdir=project/app
    gradle=yes

Build:3.1.1,84
    commit=v3.1.1
    subdir=project/app
    gradle=yes

Build:3.1.2.1,87
    commit=v3.1.2.1
    subdir=project/app
    gradle=yes

Build:3.1.3.2,90
    commit=v3.1.3.2
    subdir=project/app
    gradle=yes

Build:3.3,93
    commit=v3.3
    subdir=project/app
    gradle=yes

Build:3.4,94
    commit=v3.4
    subdir=project/app
    gradle=yes

Build:3.4.2,96
    commit=v3.4.2
    subdir=project/app
    gradle=yes

Build:3.5.0.2,99
    commit=v3.5.0.2
    subdir=project/app
    gradle=yes

Build:3.5.2.1,103
    commit=v3.5.2.1
    subdir=project/app
    gradle=yes

Build:3.5.2.4,106
    commit=v3.5.2.4
    subdir=project/app
    gradle=yes

Build:3.5.2.5,107
    commit=v3.5.2.5
    subdir=project/app
    gradle=yes
    rm=project/gradle

Build:3.5.2.6,108
    commit=v3.5.2.6
    subdir=project/app
    gradle=yes
    rm=project/gradle

Build:3.5.2.7,109
    commit=v3.5.2.7
    subdir=project/app
    gradle=yes
    rm=project/gradle

Build:3.5.2.8,110
    commit=v3.5.2.8
    subdir=project/app
    gradle=yes
    rm=project/gradle

Build:3.6,111
    commit=v3.6
    subdir=project/app
    gradle=yes
    rm=project/gradle

Build:3.6.1.2,114
    commit=v3.6.1.2
    subdir=project/app
    gradle=yes
    rm=project/gradle

Build:3.6.4,117
    commit=v3.6.4
    subdir=project/app
    gradle=yes
    rm=project/gradle

Auto Update Mode:Version v%v
Update Check Mode:Tags
Current Version:3.6.4
Current Version Code:117
